{
  "project_info": {
    "project_number": "453474967811",
    "firebase_url": "https://test-28925.firebaseio.com",
    "project_id": "test-28925",
    "storage_bucket": "test-28925.appspot.com"
  },
  "client": [
    {
      "client_info": {
        "mobilesdk_app_id": "1:453474967811:android:7fdb29cab814c53b4a0936",
        "android_client_info": {
          "package_name": "com.example.flutter_notification_firebase"
        }
      },
      "oauth_client": [
        {
          "client_id": "453474967811-73ju15l9345vopfaqhn9uavh27ulcfvj.apps.googleusercontent.com",
          "client_type": 1,
          "android_info": {
            "package_name": "com.example.flutter_notification_firebase",
            "certificate_hash": "04351794075e1f19418967ce5a496b1cd4431b3f"
          }
        },
        {
          "client_id": "453474967811-3l97fdv4oab7t4okorhgdjl7rfs7blg3.apps.googleusercontent.com",
          "client_type": 3
        }
      ],
      "api_key": [
        {
          "current_key": "AIzaSyDrB7k4QceleHodi3dqRv2mrETmuk5rvno"
        }
      ],
      "services": {
        "appinvite_service": {
          "other_platform_oauth_client": [
            {
              "client_id": "453474967811-3l97fdv4oab7t4okorhgdjl7rfs7blg3.apps.googleusercontent.com",
              "client_type": 3
            }
          ]
        }
      }
    },
    {
      "client_info": {
        "mobilesdk_app_id": "1:453474967811:android:1bf94590dc3cf7fa4a0936",
        "android_client_info": {
          "package_name": "com.kma.hatuan314.flutter_chat_firebase"
        }
      },
      "oauth_client": [
        {
          "client_id": "453474967811-ge2l4vs8d7d8q6998rm70opakn4ldf3t.apps.googleusercontent.com",
          "client_type": 1,
          "android_info": {
            "package_name": "com.kma.hatuan314.flutter_chat_firebase",
            "certificate_hash": "04351794075e1f19418967ce5a496b1cd4431b3f"
          }
        },
        {
          "client_id": "453474967811-3l97fdv4oab7t4okorhgdjl7rfs7blg3.apps.googleusercontent.com",
          "client_type": 3
        }
      ],
      "api_key": [
        {
          "current_key": "AIzaSyDrB7k4QceleHodi3dqRv2mrETmuk5rvno"
        }
      ],
      "services": {
        "appinvite_service": {
          "other_platform_oauth_client": [
            {
              "client_id": "453474967811-3l97fdv4oab7t4okorhgdjl7rfs7blg3.apps.googleusercontent.com",
              "client_type": 3
            }
          ]
        }
      }
    },
    {
      "client_info": {
        "mobilesdk_app_id": "1:453474967811:android:bc8f807c7cbba148",
        "android_client_info": {
          "package_name": "com.magenest.storeapp"
        }
      },
      "oauth_client": [
        {
          "client_id": "453474967811-96r0m5qu6ggtu10ec2q647r9lepl8090.apps.googleusercontent.com",
          "client_type": 1,
          "android_info": {
            "package_name": "com.magenest.storeapp",
            "certificate_hash": "42000779ee083299ff598e3e33abfcdb06ce3ae2"
          }
        },
        {
          "client_id": "453474967811-3l97fdv4oab7t4okorhgdjl7rfs7blg3.apps.googleusercontent.com",
          "client_type": 3
        }
      ],
      "api_key": [
        {
          "current_key": "AIzaSyDrB7k4QceleHodi3dqRv2mrETmuk5rvno"
        }
      ],
      "services": {
        "appinvite_service": {
          "other_platform_oauth_client": [
            {
              "client_id": "453474967811-3l97fdv4oab7t4okorhgdjl7rfs7blg3.apps.googleusercontent.com",
              "client_type": 3
            }
          ]
        }
      }
    },
    {
      "client_info": {
        "mobilesdk_app_id": "1:453474967811:android:35660c6969ef0a2f",
        "android_client_info": {
          "package_name": "com.vn.kma.hatuan314.kchat"
        }
      },
      "oauth_client": [
        {
          "client_id": "453474967811-tugm9sjek8dqamdgr3qbb5o1ei6vtrhp.apps.googleusercontent.com",
          "client_type": 1,
          "android_info": {
            "package_name": "com.vn.kma.hatuan314.kchat",
            "certificate_hash": "5a18cc290e6ca59c9366fbf2774d5c3690746095"
          }
        },
        {
          "client_id": "453474967811-3l97fdv4oab7t4okorhgdjl7rfs7blg3.apps.googleusercontent.com",
          "client_type": 3
        }
      ],
      "api_key": [
        {
          "current_key": "AIzaSyDrB7k4QceleHodi3dqRv2mrETmuk5rvno"
        }
      ],
      "services": {
        "appinvite_service": {
          "other_platform_oauth_client": [
            {
              "client_id": "453474967811-3l97fdv4oab7t4okorhgdjl7rfs7blg3.apps.googleusercontent.com",
              "client_type": 3
            }
          ]
        }
      }
    },
    {
      "client_info": {
        "mobilesdk_app_id": "1:453474967811:android:3bdd4b34dc04cf80",
        "android_client_info": {
          "package_name": "com.vn.kma.hatuan314.khat"
        }
      },
      "oauth_client": [
        {
          "client_id": "453474967811-rl4dstdpuvan2ikshcokhiq1qn8g8l4s.apps.googleusercontent.com",
          "client_type": 1,
          "android_info": {
            "package_name": "com.vn.kma.hatuan314.khat",
            "certificate_hash": "938e16f809a95372704fcdc692e31590ab55c1c1"
          }
        },
        {
          "client_id": "453474967811-3l97fdv4oab7t4okorhgdjl7rfs7blg3.apps.googleusercontent.com",
          "client_type": 3
        }
      ],
      "api_key": [
        {
          "current_key": "AIzaSyDrB7k4QceleHodi3dqRv2mrETmuk5rvno"
        }
      ],
      "services": {
        "appinvite_service": {
          "other_platform_oauth_client": [
            {
              "client_id": "453474967811-3l97fdv4oab7t4okorhgdjl7rfs7blg3.apps.googleusercontent.com",
              "client_type": 3
            }
          ]
        }
      }
    },
    {
      "client_info": {
        "mobilesdk_app_id": "1:453474967811:android:33143388752cd19d",
        "android_client_info": {
          "package_name": "vn.com.kma.hatuan314.firebaseapp"
        }
      },
      "oauth_client": [
        {
          "client_id": "453474967811-3l97fdv4oab7t4okorhgdjl7rfs7blg3.apps.googleusercontent.com",
          "client_type": 3
        }
      ],
      "api_key": [
        {
          "current_key": "AIzaSyDrB7k4QceleHodi3dqRv2mrETmuk5rvno"
        }
      ],
      "services": {
        "appinvite_service": {
          "other_platform_oauth_client": [
            {
              "client_id": "453474967811-3l97fdv4oab7t4okorhgdjl7rfs7blg3.apps.googleusercontent.com",
              "client_type": 3
            }
          ]
        }
      }
    }
  ],
  "configuration_version": "1"
}